HW 01
…
troops <- napolean$troops
print(troops) 

# A tibble: 51 × 5
    long   lat survivors direction group
   <dbl> <dbl>     <dbl> <chr>     <dbl>
 1  24    54.9    340000 advancing     1
 2  24.5  55      340000 advancing     1
 3  25.5  54.5    340000 advancing     1
 4  26    54.7    320000 advancing     1
 5  27    54.8    300000 advancing     1
 6  28    54.9    280000 advancing     1
 7  28.5  55      240000 advancing     1
 8  29    55.1    210000 advancing     1
 9  30    55.2    180000 advancing     1
10  30.3  55.3    175000 advancing     1
# ℹ 41 more rows
…
